VertexLitGeneric
{
	$model 					"1"
	$basetexture		 	"spacecombat2\ltbrandon\crystals\crystal_01_defuse"
	$bumpmap				"spacecombat2\ltbrandon\crystals\crystal_01_normal"
	$envmap 				env_cubemap
	$envmaptint				"[0.55 0.55 0.7]"
	$color2					"[0.6 0.75 0.73]"
	$surfaceprop			"metal"
	$phong 1
	$halflambert 1
}