"vertexlitgeneric"
{
	"$basetexture" 		"ce_ls3additional/metal"
	"$surfaceprop" 		"metal"
	"$envmaptint" 		"[0.5 0.5 0.5]"
	"$bumpmap" 		"ce_ls3additional/metal_bump"
	"$envmap" 		"env_cubemap"
	"$envmapsaturation" 	"0.3"
	"$model" 		"1"
}
